{
  "count": 20,
  "totalCount": 2042,
  "page": 1,
  "totalPages": 103,
  "lastItemIndex": 20,
  "results": [
      {
          "_id": "MNoB9t3dfeS",
          "author": "Shaquille O'Neal",
          "content": "I'm tired of hearing about money, money, money, money, money. I just want to play the game, drink Pepsi, and wear Reebok.",
          "tags": [
              "sports",
              "humorous"
          ],
          "authorSlug": "shaquille-o-neal",
          "length": 121,
          "dateAdded": "2022-07-06",
          "dateModified": "2022-07-08"
      },
      {
          "_id": "AxNf6c-G_KI",
          "author": "Rogers Hornsby",
          "content": "People ask me what I do in winter when there's no baseball. I'll tell you what I do. I stare out the window and wait for spring.",
          "tags": [
              "sports",
              "competition"
          ],
          "authorSlug": "rogers-hornsby",
          "length": 128,
          "dateAdded": "2022-07-06",
          "dateModified": "2022-07-08"
      },
      {
          "_id": "CEURHvpb3u",
          "author": "J. Paul Getty",
          "content": "If you owe the bank $100 that's your problem. If you owe the bank $100 million, that's the bank's problem.",
          "tags": [
              "business"
          ],
          "authorSlug": "j-paul-getty",
          "length": 106,
          "dateAdded": "2022-07-06",
          "dateModified": "2022-07-06"
      },
      {
          "_id": "Hpo_qh-q76A",
          "author": "Reggie Jackson (basketball, born 1990)",
          "content": "Fans don't boo nobodies.",
          "tags": [
              "sports",
              "competition"
          ],
          "authorSlug": "reggie-jackson-basketball-born-1990",
          "length": 24,
          "dateAdded": "2022-07-06",
          "dateModified": "2022-07-08"
      },
      {
          "_id": "81hjl4B9wx2",
          "author": "Ernie Banks",
          "content": "The only way to prove that you're a good sport is to lose.",
          "tags": [
              "sports",
              "competition"
          ],
          "authorSlug": "ernie-banks",
          "length": 58,
          "dateAdded": "2022-07-06",
          "dateModified": "2022-07-08"
      },
      {
          "_id": "lpxXplIA4ie",
          "author": "Yogi Berra",
          "content": "Half the lies they tell about me aren't true.",
          "tags": [
              "sports",
              "competition"
          ],
          "authorSlug": "yogi-berra",
          "length": 45,
          "dateAdded": "2022-07-06",
          "dateModified": "2022-07-08"
      },
      {
          "_id": "Gtt0T3mfPbx",
          "author": "Billie Jean King",
          "content": "Champions keep playing until they get it right.",
          "tags": [
              "sports",
              "competition"
          ],
          "authorSlug": "billie-jean-king",
          "length": 47,
          "dateAdded": "2022-07-06",
          "dateModified": "2022-07-08"
      },
      {
          "_id": "r7qJ-YKIq2e",
          "author": "Earl Monroe",
          "content": "Just be patient. Let the game come to you. Don't rush. Be quick, but don't hurry.",
          "tags": [
              "sports",
              "competition"
          ],
          "authorSlug": "earl-monroe",
          "length": 81,
          "dateAdded": "2022-07-06",
          "dateModified": "2022-07-08"
      },
      {
          "_id": "3KGpfidF22D",
          "author": "William James",
          "content": "Most people never run far enough on their first wind to find out they've got a second.",
          "tags": [
              "sports",
              "competition"
          ],
          "authorSlug": "william-james",
          "length": 86,
          "dateAdded": "2022-07-06",
          "dateModified": "2022-07-08"
      },
      {
          "_id": "x-0qEVIZ66n",
          "author": "Eric Liddell",
          "content": "God made me fast. And when I run, I feel His pleasure.",
          "tags": [
              "sports",
              "competition"
          ],
          "authorSlug": "eric-liddell",
          "length": 54,
          "dateAdded": "2022-07-06",
          "dateModified": "2022-07-08"
      },
      {
          "_id": "Wp2A_oOWNEq",
          "author": "Muhammad Ali",
          "content": "It's just a job. Grass grows, birds fly, waves pound the sand. I beat people up.",
          "tags": [
              "sports"
          ],
          "authorSlug": "muhammad-ali",
          "length": 80,
          "dateAdded": "2022-07-06",
          "dateModified": "2022-07-08"
      },
      {
          "_id": "Nr6_kltWU8x",
          "author": "Hugo Black",
          "content": "When I was 40, my doctor advised me that a man in his 40s shouldn't play tennis. I heeded his advice carefully and could hardly wait until I reached 50 to start again.",
          "tags": [
              "sports",
              "humorous"
          ],
          "authorSlug": "hugo-black",
          "length": 167,
          "dateAdded": "2022-07-06",
          "dateModified": "2022-07-08"
      },
      {
          "_id": "fwMKi2Q0Pk",
          "author": "Michael Phelps",
          "content": "You can't put a limit on anything. The more you dream, the farther you get.",
          "tags": [
              "sports",
              "competition"
          ],
          "authorSlug": "michael-phelps",
          "length": 75,
          "dateAdded": "2022-07-06",
          "dateModified": "2022-07-08"
      },
      {
          "_id": "Yul4uqMwfA1",
          "author": "Arnold Palmer",
          "content": "What other people may find in poetry or art museums, I find in the flight of a good drive.",
          "tags": [
              "sports",
              "competition"
          ],
          "authorSlug": "arnold-palmer",
          "length": 90,
          "dateAdded": "2022-07-06",
          "dateModified": "2022-07-08"
      },
      {
          "_id": "Z1z6kZ2Qp8",
          "author": "Elon Musk",
          "content": "If you're trying to create a company, it's like baking a cake. You have to have all the ingredients in the right proportion.",
          "tags": [
              "business"
          ],
          "authorSlug": "elon-musk",
          "length": 124,
          "dateAdded": "2022-07-06",
          "dateModified": "2022-07-06"
      },
      {
          "_id": "ch-0pti9X6U",
          "author": "Joe Adcock",
          "content": "Trying to sneak a fastball past Hank Aaron is like trying to sneak the sunrise past a rooster.",
          "tags": [
              "sports",
              "competition"
          ],
          "authorSlug": "joe-adcock",
          "length": 94,
          "dateAdded": "2022-07-06",
          "dateModified": "2022-07-08"
      },
      {
          "_id": "boO8cxCyUZ",
          "author": "Sam Walton",
          "content": "There is only one boss. The customer. And he can fire everybody in the company from the chairman on down, simply by spending his money somewhere else.",
          "tags": [
              "business"
          ],
          "authorSlug": "sam-walton",
          "length": 150,
          "dateAdded": "2022-07-06",
          "dateModified": "2022-07-06"
      },
      {
          "_id": "JIk3cbQ8s",
          "author": "Michael Jordan",
          "content": "I've missed more than 9000 shots in my career. I've lost almost 300 games. 26 times, I've been trusted to take the game winning shot and missed. I've failed over and over and over again in my life. And that is why I succeed.",
          "tags": [
              "sports",
              "competition",
              "famous-quotes"
          ],
          "authorSlug": "michael-jordan",
          "length": 224,
          "dateAdded": "2022-07-06",
          "dateModified": "2022-07-08"
      },
      {
          "_id": "S78ad3jDcyA",
          "author": "John Madden",
          "content": "The fewer rules a coach has, the fewer rules there are for players to break.",
          "tags": [
              "sports",
              "competition"
          ],
          "authorSlug": "john-madden",
          "length": 76,
          "dateAdded": "2022-07-06",
          "dateModified": "2022-07-08"
      },
      {
          "_id": "lTm3ZNHDrh7",
          "author": "Bob Knight",
          "content": "You don't play against opponents, you play against the game of basketball.",
          "tags": [
              "sports",
              "competition"
          ],
          "authorSlug": "bob-knight",
          "length": 74,
          "dateAdded": "2022-07-06",
          "dateModified": "2022-07-08"
      }
  ]
}
